Public housing and leisure spaces in Madrid
…
# Combine results
combined_df <- bind_rows(posts)

combined_df

# A tibble: 41 × 2
   number district          
   <chr>  <chr>             
 1 85     Puente de Vallecas
 2 87     Latina            
 3 9      Puente de Vallecas
 4 19     Puente de Vallecas
 5 25     Carabanchel       
 6 72     Villa de Vallecas 
 7 61     Puente de Vallecas
 8 15     Puente de Vallecas
 9 101    Puente de Vallecas
10 100    Puente de Vallecas
# ℹ 31 more rows
…
